1 10 0.19536 0.0195312
2 20 0.39072 0.0390625
3 60 1.17216 0.117188
4 100 1.9536 0.195312
5 200 3.9072 0.390625
6 600 2.9304 0.292969
7 1000 3.256 0.325521
8 2000 4.884 0.488281
9 6000 6.51201 0.651042
10 10000 6.73656 0.673491
11 20000 6.40525 0.640369
12 60000 6.85474 0.685307
13 100000 7.00216 0.700045
14 200000 7.15605 0.71543
15 600000 6.7755 0.677384
16 1000000 6.76455 0.67629
17 2000000 6.76572 0.676407
