1 10 10.6667 1
2 20 10.6667 1
3 60 10.6667 1
4 100 10.6667 1
5 200 10.7744 1.0101
6 600 10.7203 1.00503
7 1000 10.7095 1.00402
8 2000 10.6988 1.00301
9 6000 10.6988 1.00301
10 10000 10.6998 1.00311
11 20000 10.7025 1.00336
12 60000 10.704 1.0035
13 100000 10.7042 1.00352
14 200000 10.7063 1.00372
15 600000 10.7074 1.00382
16 1000000 10.7087 1.00394
17 2000000 10.7139 1.00443
