1 10 0.938416 0.15625
2 20 1.87683 0.3125
3 60 5.6305 0.9375
4 100 1.56403 0.260417
5 200 2.34604 0.390625
6 600 4.02178 0.669643
7 1000 3.60929 0.600962
8 2000 3.99326 0.664894
9 6000 4.10985 0.684307
10 10000 4.02754 0.670601
11 20000 4.10686 0.683807
12 60000 4.09789 0.682314
13 100000 4.18562 0.696922
14 200000 4.1477 0.690608
15 600000 4.11466 0.685107
16 1000000 4.14385 0.689967
17 2000000 4.15155 0.691249
