1 10 2.5 0.625
2 20 2 0.5
3 60 3 0.75
4 100 2.38095 0.595238
5 200 2.38095 0.595238
6 600 2.67857 0.669643
7 1000 2.73224 0.68306
8 2000 2.7027 0.675676
9 6000 2.76243 0.690608
10 10000 2.7115 0.677874
11 20000 2.73 0.682501
12 60000 2.73373 0.683434
13 100000 2.74982 0.687455
14 200000 2.7651 0.691276
15 600000 2.76541 0.691353
16 1000000 2.76676 0.691689
17 2000000 2.77272 0.693179
