1 10 1.25 0.3125
2 20 2.5 0.625
3 60 1.5 0.375
4 100 1.5625 0.390625
5 200 2.5 0.625
6 600 2.67857 0.669643
7 1000 2.71739 0.679348
8 2000 2.84091 0.710227
9 6000 2.74725 0.686813
10 10000 2.74123 0.685307
11 20000 2.73224 0.68306
12 60000 2.75533 0.688832
13 100000 2.74605 0.686511
14 200000 2.74093 0.685232
15 600000 2.75786 0.689465
16 1000000 2.76524 0.691311
17 2000000 2.76849 0.692122
