1 10 0.3125 0.078125
2 20 0.625 0.15625
3 60 1.875 0.46875
4 100 3.125 0.78125
5 200 1.04167 0.260417
6 600 2.08333 0.520833
7 1000 2.40385 0.600962
8 2000 2.40385 0.600962
9 6000 2.84091 0.710227
10 10000 2.64831 0.662076
11 20000 2.67094 0.667735
12 60000 2.74927 0.687317
13 100000 2.80773 0.701932
14 200000 2.79392 0.69848
15 600000 2.72055 0.680136
16 1000000 2.73117 0.682791
17 2000000 2.75149 0.687871
