1 10 3e-06 2e-05 2.7e-05 0.04621 0.00384396 61 250 351
2 20 3e-06 2.7e-05 2.3e-05 0.029762 0.00034602 524 500 1104
3 60 3e-06 7.3e-05 5.7e-05 0.031164 0.00052784 827 1475 2538
4 100 2e-06 9.9e-05 6.5e-05 0.037535 0.00106901 1090 2450 3932
5 200 3e-06 0.00017 0.000111 0.039883 0.00142898 2201 4825 7798
6 600 3e-06 0.000511 0.000274 0.045057 0.00179917 5837 14475 22628
7 1000 2e-06 0.000678 0.000465 0.047647 0.00288893 9170 24200 37242
8 2000 3e-06 0.001314 0.00099 0.042896 0.00128917 19207 48500 75467
9 6000 2e-06 0.003898 0.003321 0.046269 0.00126695 56455 146275 226134
10 10000 1.3e-05 0.006749 0.008011 0.045823 0.00130657 94795 243875 377690
11 20000 3e-06 0.013198 0.016514 0.046264 0.00140371 184805 486975 749696
12 60000 3e-06 0.048041 0.064785 0.049346 0.00138519 554585 1458450 2246387
13 100000 5e-06 0.08631 0.10984 0.050216 0.00135176 923012 2428525 3740101
14 200000 4e-06 0.158511 0.225026 0.051228 0.00137002 1830314 4847375 7453269
15 600000 4e-06 0.542528 0.68689 0.055194 0.0013483 5470394 14263500 22016054
16 1000000 3e-06 1.15051 1.04981 0.05859 0.00133473 9130270 23368775 36238049
17 2000000 4e-06 2.14283 2.09969 0.063535 0.0012809 18229985 45372325 70861882
