1 1000 1.7069e-05
1 2000 9.83e-07
1 6000 1.13733e-06
1 10000 1.323e-06
1 20000 1.38785e-06
1 60000 1.50517e-06
1 100000 1.62626e-06
1 200000 1.66484e-06
1 600000 1.73147e-06
1 1000000 1.89072e-06
1 2000000 1.86598e-06
