24 3e-06 0.013188 0.032441 0.041407 0.00077974 23200 12995917 13057089
25 7e-06 0.008707 0.02085 0.045678 0.00042043 22178 6609610 6670328
26 6e-06 0.005616 0.014117 0.045697 0.00050937 24919 3340980 3404635
27 6e-06 0.00585 0.007926 0.046307 0.00127663 29620 1688322 1756754
28 5e-06 0.005995 0.006346 0.045873 0.00055606 38765 864635 942260
29 5e-06 0.005707 0.005282 0.043784 0.00077012 55992 447810 542742
30 4e-06 0.005969 0.004921 0.04536 0.00130657 94795 243875 377690
31 3e-06 0.005962 0.004868 0.047293 0.00199798 166640 136934 342698
32 3e-06 0.006216 0.005286 0.047896 0.00493283 308160 88524 436028
33 4e-06 0.006404 0.006382 0.053557 0.0075874 569580 59496 668740
34 3e-06 0.006518 0.007455 0.049825 0.0233948 1068209 49845 1157930
